com\Norton\Smartwork5\Pages\DemoEbookPage.class
rough\Test.class
com\Norton\Smartwork5\Pages\UpdateStudentSetPage.class
com\Norton\NortonWebsite\Pages\Instructor_Resources_Page.class
com\Norton\Smartwork5\Pages\StudentSite_Page.class
com\Norton\CreateUsers\Pages\NortonWebSite_CreateAccount.class
com\Norton\CreateUsers\Pages\SmartWork5_NewRegisteration.class
com\Norton\NortonWebsite\Pages\NortonWebsiteLogin_Page.class
Utilities\GetDate.class
rough\rough.class
Utilities\ReadJsonFile.class
Utilities\PropertiesFile.class
com\Norton\Smartwork5\Pages\Create_New_Student_Set_Page.class
com\Norton\Smartwork5\Pages\GearMenu_Page.class
rough\NciaSignInPage_Test_Rough.class
rough\Login_ExistingUser_RegCode_Test_Rough.class
com\Norton\Pcat\Pages\Pcat_Page.class
Utilities\GetRandomId.class
Utilities\TestListener.class
com\Norton\LMS\Pages\LMS.class
rough\ReadJson.class
rough\getNumericvalue.class
com\Norton\Smartwork5\Pages\Activity_group_selectors.class
Utilities\RetryTestListener.class
com\Norton\Smartwork5\Pages\Register_Purchase_Page.class
rough\Countrydrpdown.class
Utilities\Transform.class
com\Norton\Smartwork5\Pages\ManageStudentSetsPage.class
rough\PanelList.class
com\Norton\Smartwork5\Pages\NciaSignInPage.class
Utilities\GetChildWindow.class
Utilities\retryAnalyzer.class
rough\BestSeller.class
